<svg width="12" height="12" viewBox="0 0 12 12" fill="none" xmlns="http://www.w3.org/2000/svg">
<path d="M10.7236 2.88818C10.6811 2.80347 10.5947 2.75 10.5 2.75H1.49997C1.40525 2.75 1.31882 2.80347 1.27634 2.88818C1.2341 2.9729 1.24314 3.07422 1.30002 3.15002L5.80002 9.15003C5.84714 9.21301 5.92136 9.25 5.99997 9.25C6.07858 9.25 6.1528 9.21301 6.19992 9.15003L10.6999 3.15002C10.7568 3.07422 10.7658 2.9729 10.7236 2.88818Z" fill="#CFCED1"/>
</svg>
