<svg width="17" height="16" viewBox="0 0 17 16" fill="none" xmlns="http://www.w3.org/2000/svg">
<path d="M16.934 7.84211C16.7874 7.65789 13.0634 3 8.489 3C3.8853 3 0.190599 7.65789 0.0439845 7.84211C-0.0146615 7.92105 -0.0146615 8.05263 0.0439845 8.15789C0.190599 8.3421 3.91462 13 8.489 13C13.0341 13 16.7874 8.3421 16.934 8.15789C17.022 8.05263 17.022 7.94737 16.934 7.84211ZM8.489 10.8947C6.7003 10.8947 5.26348 9.60526 5.26348 8C5.26348 6.39474 6.7003 5.10526 8.489 5.10526C10.2777 5.10526 11.7145 6.39474 11.7145 8C11.7145 9.60526 10.2777 10.8947 8.489 10.8947Z" fill="#558BF3"/>
</svg>
